<svg class="vector fh" width="300px" height="300px" xmlns="http://www.w3.org/2000/svg" baseProfile="full" version="1.1" style="width: 300px; height: 300px; stroke: #101010; stroke-width: 16; fill: none; stroke-linecap: round;">

<circle cx="150" cy="150" r="150" stroke="none" fill="#f8f8f8">

<path d="M60,165 Q195,60 240,240  M195,60 L60,165  M195,60 L240,240  M195,45 A15,15 0 0,1 210,60 A-15,15 0 0,1 195,75  A-15,-15 0 0,1 180,60 A15,-15 0 0,1 195,45  M60,150 A15,15 0 0,1 75,165 A-15,15 0 0,1 60,180  A-15,-15 0 0,1 45,165 A15,-15 0 0,1 60,150  M240,225 A15,15 0 0,1 255,240 A-15,15 0 0,1 240,255  A-15,-15 0 0,1 225,240 A15,-15 0 0,1 240,225  "></path>

</svg>
